{
  "project_info": {
    "project_number": "342089578944",
    "project_id": "links-gamifications",
    "storage_bucket": "links-gamifications.appspot.com"
  },
  "client": [
    {
      "client_info": {
        "mobilesdk_app_id": "1:342089578944:android:dc45a177236dbf73433025",
        "android_client_info": {
          "package_name": "it.linksacademy.gamification"
        }
      },
      "oauth_client": [
        {
          "client_id": "342089578944-arbdpec3m6fmk4c28cb8nlkv33nmf3qa.apps.googleusercontent.com",
          "client_type": 1,
          "android_info": {
            "package_name": "it.linksacademy.gamification",
            "certificate_hash": "5fe1886b82ce5063487ac1ccee343ebaf5f2361d"
          }
        },
        {
          "client_id": "342089578944-n28l80ck8i3st35jo8b61sen7e7bi30h.apps.googleusercontent.com",
          "client_type": 3
        }
      ],
      "api_key": [
        {
          "current_key": "AIzaSyDriqp8mg7nftunfj11KJrs4tytDvtI4qE"
        }
      ],
      "services": {
        "appinvite_service": {
          "other_platform_oauth_client": [
            {
              "client_id": "342089578944-n28l80ck8i3st35jo8b61sen7e7bi30h.apps.googleusercontent.com",
              "client_type": 3
            }
          ]
        }
      }
    }
  ],
  "configuration_version": "1"
}